Date;Weekday;Down;Up;Total
;3;0.062;0.101;0.163
2020-08-28;5;305371.587;7145.053;312516.640
2020-09-01;2;0.000;0.000;0.000
2020-09-24;4;0.000;0.000;0.000
2020-09-29;2;90536.348;1969.656;92506.004
2020-10-01;4;2714.365;1911.542;4625.907
2020-10-02;5;6620.797;4919.748;11540.545
2020-10-03;6;6217.144;4974.997;11192.141
2020-10-04;7;13590.342;10859.707;24450.049
2020-10-05;1;14972.137;11639.110;26611.247
2020-10-06;2;11040.951;8917.194;19958.145
2020-10-07;3;49084.167;3496.916;52581.083
2020-10-08;4;13604.187;10825.175;24429.362
2020-10-09;5;12885.761;9233.540;22119.301
2020-10-10;6;7139.797;5774.964;12914.761
2020-10-11;7;163.976;95.510;259.486
2020-10-12;1;0.000;0.000;0.000
2020-10-14;3;4480.458;3192.561;7673.019
2020-10-15;4;9655.013;6888.972;16543.985
2020-10-16;5;105180.768;7662.321;112843.089
2020-10-17;6;9597.065;6879.218;16476.283
2020-10-18;7;10862.335;6883.397;17745.732
2020-10-19;1;11953.316;6845.195;18798.511
2020-10-20;2;0.000;0.000;0.000
